Coefficient Ridge & Lasso
…
## [1] 0.3006849

tune_spec <- linear_reg(penalty = tune(), mixture = 1) %>%
  set_engine("glmnet")

lambda_grid <- grid_regular(penalty(), levels = 100)

0.3는 분석을 위해 남아 있을 표본의 비율 439개로 확인됨 0.3 확인

2 Coefficient 찾기

2.1 Best Lambda (Lasso)일 때

## # A tibble: 100 x 7
##     penalty .metric .estimator  mean     n std_err .config               
##       <dbl> <chr>   <chr>      <dbl> <int>   <dbl> <chr>                 
##  1 1.00e-10 rmse    standard   0.189     1      NA Preprocessor1_Model001
##  2 1.26e-10 rmse    standard   0.189     1      NA Preprocessor1_Model002
##  3 1.59e-10 rmse    standard   0.189     1      NA Preprocessor1_Model003
##  4 2.01e-10 rmse    standard   0.189     1      NA Preprocessor1_Model004
##  5 2.54e-10 rmse    standard   0.189     1      NA Preprocessor1_Model005
##  6 3.20e-10 rmse    standard   0.189     1      NA Preprocessor1_Model006
##  7 4.04e-10 rmse    standard   0.189     1      NA Preprocessor1_Model007
##  8 5.09e-10 rmse    standard   0.189     1      NA Preprocessor1_Model008
##  9 6.43e-10 rmse    standard   0.189     1      NA Preprocessor1_Model009
## 10 8.11e-10 rmse    standard   0.189     1      NA Preprocessor1_Model010
## # … with 90 more rows

## # A tibble: 5 x 7
##   penalty .metric .estimator  mean     n std_err .config               
##     <dbl> <chr>   <chr>      <dbl> <int>   <dbl> <chr>                 
## 1 0.0242  rmse    standard   0.164     1      NA Preprocessor1_Model084
## 2 0.0192  rmse    standard   0.164     1      NA Preprocessor1_Model083
## 3 0.0152  rmse    standard   0.165     1      NA Preprocessor1_Model082
## 4 0.0305  rmse    standard   0.165     1      NA Preprocessor1_Model085
## 5 0.00756 rmse    standard   0.166     1      NA Preprocessor1_Model079

## [1] 0.02420128

## # A tibble: 24 x 2
##    term           estimate
##    <chr>             <dbl>
##  1 (Intercept)    12.0    
##  2 lot_area        0.00351
##  3 overall_qual    0.135  
##  4 overall_cond    0.00866
##  5 year_built      0.0251 
##  6 year_remod_add  0.0312 
##  7 bsmt_fin_sf1    0.00413
##  8 total_bsmt_sf   0.0269 
##  9 x1st_flr_sf     0.00338
## 10 gr_liv_area     0.0961 
## # … with 14 more rows
…
doParallel::registerDoParallel()

tune_result2 <- workflow2 %>% 
  tune_grid(validation_set,
            grid = lambda_grid,
            metrics = metric_set(rmse))

##rmse root mean square error

tune_result2 %>% 
  collect_metrics()

## # A tibble: 100 x 7
##     penalty .metric .estimator  mean     n std_err .config               
##       <dbl> <chr>   <chr>      <dbl> <int>   <dbl> <chr>                 
##  1 1.00e-10 rmse    standard   0.163     1      NA Preprocessor1_Model001
##  2 1.26e-10 rmse    standard   0.163     1      NA Preprocessor1_Model002
##  3 1.59e-10 rmse    standard   0.163     1      NA Preprocessor1_Model003
##  4 2.01e-10 rmse    standard   0.163     1      NA Preprocessor1_Model004
##  5 2.54e-10 rmse    standard   0.163     1      NA Preprocessor1_Model005
##  6 3.20e-10 rmse    standard   0.163     1      NA Preprocessor1_Model006
##  7 4.04e-10 rmse    standard   0.163     1      NA Preprocessor1_Model007
##  8 5.09e-10 rmse    standard   0.163     1      NA Preprocessor1_Model008
##  9 6.43e-10 rmse    standard   0.163     1      NA Preprocessor1_Model009
## 10 8.11e-10 rmse    standard   0.163     1      NA Preprocessor1_Model010
## # … with 90 more rows
…
Ridge_model <- 
  linear_reg(penalty = tune_best2$penalty, # tuned penalty
             mixture = 0) %>% # lasso: 1, ridge: 0
  set_engine("glmnet")

Ridge_fit <- 
  Ridge_model %>% 
  fit(sale_price ~ ., data = train2)

result_Ridge <- Ridge_fit %>% 
  tidy() %>% filter (estimate != 0)%>% select(term,estimate)

result_Ridge

## # A tibble: 246 x 2
##    term           estimate
##    <chr>             <dbl>
##  1 (Intercept)    12.0    
##  2 ms_sub_class   -0.00742
##  3 lot_frontage    0.00448
##  4 lot_area        0.00969
##  5 overall_qual    0.0426 
##  6 overall_cond    0.0214 
##  7 year_built      0.0124 
##  8 year_remod_add  0.0173 
##  9 mas_vnr_area    0.00895
## 10 bsmt_fin_sf1    0.0117 
## # … with 236 more rows
…
